{
  "project_info": {
    "project_number": "884162283182",
    "firebase_url": "https://signupfirebaseauthen.firebaseio.com",
    "project_id": "signupfirebaseauthen",
    "storage_bucket": "signupfirebaseauthen.appspot.com"
  },
  "client": [
    {
      "client_info": {
        "mobilesdk_app_id": "1:884162283182:android:24805f5a0353dd93",
        "android_client_info": {
          "package_name": "jo.edu.ju.signupfirebaseauthen"
        }
      },
      "oauth_client": [
        {
          "client_id": "884162283182-u2c4bdc7fvcn8lhlpdhvjesa26gl0fk9.apps.googleusercontent.com",
          "client_type": 1,
          "android_info": {
            "package_name": "jo.edu.ju.signupfirebaseauthen",
            "certificate_hash": "8b68746d52ffa7db3a8d415342f42b7dc47441d3"
          }
        },
        {
          "client_id": "884162283182-9tgkn0al62nui1g2rc58sfa6mrfqooc5.apps.googleusercontent.com",
          "client_type": 3
        }
      ],
      "api_key": [
        {
          "current_key": "AIzaSyCSReXbuvm8Tl4PcXFyo_SkOXgNIAFRwDo"
        }
      ],
      "services": {
        "analytics_service": {
          "status": 1
        },
        "appinvite_service": {
          "status": 2,
          "other_platform_oauth_client": [
            {
              "client_id": "884162283182-9tgkn0al62nui1g2rc58sfa6mrfqooc5.apps.googleusercontent.com",
              "client_type": 3
            }
          ]
        },
        "ads_service": {
          "status": 2
        }
      }
    }
  ],
  "configuration_version": "1"
}